@startuml database OGL spells and character storage
database "OGL compliant spell db" as spellDb {
    [Rows of spells] as spellRows
}
cloud {
    note as DBN1
        Downloaded from pathfindercommunity.net
        Source is updated regularly
        Available in several formats
    end note
}

note as DBN2
    Several mb of spell descriptions
    in a 2D table
end note

spellDb <|-- DBN1
spellRows -l.. DBN2

database "Local storage" as localDB {
    folder "Character" as folders {
        [Search filter] as filter
        [Spells] as spells
    }

    [Feed index] as feed #Gray
}

spellRows -r--|> spells : Selected spells

note as N1
    Each character is stored
    in a separate subdirectory
end note

note as N2
    Full spell descriptions are
    copied to here
end note

note as N3
    Used to filter search
    results from OGL spells
end note

note as N4 #Gray
    Remember scroll position of
    the feed tab
end note

note as Sync1 #Gray
    Synchable between devices
    Backup possible
end note

note as Sync2 #Gray
    Synchable between users with
    variable access rights
end note

folders .. N1
spells .. N2
filter .. N3
feed .. N4

localDB -l.. Sync1
folders -l.. Sync2

@enduml